1,1,0,2,0,do not drink too much
2,1,0,2,0,valium in the economy size
3,1,0,2,0,are you talking to me
4,1,0,2,0,did you have a good time
5,1,0,2,0,well connected with people
6,1,0,2,0,luckily my wallet was found
7,1,0,2,0,i do not fully agree with you
8,1,0,2,0,play it again sam
9,1,0,2,0,parking tickets can be challenged
10,1,0,2,0,every saturday he folds the laundry
11,2,1,2,0,i can see the rings on saturn
12,2,1,2,0,communicate through email
13,2,1,2,0,he played a hero in that movie
14,2,1,2,0,dinosaurs have been extinct for ages
15,2,1,2,0,the food at this restaurant
16,2,1,2,0,valid until the end of the year
17,2,1,2,0,sprawling subdivisions are bad
18,2,1,2,0,our silver anniversary is coming
19,2,1,2,0,quit while you are ahead
20,2,1,2,0,we are having spaghetti
21,3,1,2,0,superman never wore a mask
22,3,1,2,0,toss the ball around
23,3,1,2,0,see you later alligator
24,3,1,2,0,an excellent way to communicate
25,3,1,2,0,a problem with the engine
26,3,1,2,0,i like to play tennis
27,3,1,2,0,fine but only in moderation
28,3,1,2,0,a fox is a very smart animal
29,3,1,2,0,rejection letters are discouraging
30,3,1,2,0,the insulation is not working
31,4,0,2,75,a little encouragement is needed
32,4,0,2,75,santa claus got stuck
33,4,0,2,75,what you see is what you get
34,4,0,2,75,my mother makes good cookies
35,4,0,2,75,coming up with killer sound bites
36,4,0,2,75,we must redouble our efforts
37,4,0,2,75,destruction of the rain forest
38,4,0,2,75,the collapse of the roman empire
39,4,0,2,75,a duck quacks to ask for food
40,4,0,2,75,learn to walk before you run
41,5,1,2,75,universities are too expensive
42,5,1,2,75,the postal service is very slow
43,5,1,2,75,prayer in schools offends some
44,5,1,2,75,weeping willows are found near water
45,5,1,2,75,the second largest country
46,5,1,2,75,the minimum amount of time
47,5,1,2,75,safe to walk the streets in the evening
48,5,1,2,75,come and see our new car
49,5,1,2,75,we accept personal checks
50,5,1,2,75,the cat has a pleasant temperament
51,6,1,2,75,irregular verbs are the hardest to learn
52,6,1,2,75,take a coffee break
53,6,1,2,75,beautiful paintings in the gallery
54,6,1,2,75,that is very unfortunate
55,6,1,2,75,this is a non profit organization
56,6,1,2,75,what goes up must come down
57,6,1,2,75,a subject one can really enjoy
58,6,1,2,75,look in the syllabus for the course
59,6,1,2,75,there are winners and losers
60,6,1,2,75,please follow the guidelines
61,7,0,2,25,drugs should be avoided
62,7,0,2,25,you should visit a doctor
63,7,0,2,25,exceed the maximum speed limit
64,7,0,2,25,a coupon for a free sample
65,7,0,2,25,the proprietor was unavailable
66,7,0,2,25,if you were not so stupid
67,7,0,2,25,lydia wants to go home
68,7,0,2,25,information super highway
69,7,0,2,25,the children are playing
70,7,0,2,25,important news always seems to be late
71,8,1,2,25,this is too much to handle
72,8,1,2,25,a glance in the right direction
73,8,1,2,25,the power of denial
74,8,1,2,25,for murder you get a long prison sentence
75,8,1,2,25,an injustice is committed every day
76,8,1,2,25,the rationale behind the decision
77,8,1,2,25,get rid of that immediately
78,8,1,2,25,we park in driveways
79,8,1,2,25,seasoned golfers love the game
80,8,1,2,25,a psychiatrist will help you
81,9,1,2,25,you must be getting old
82,9,1,2,25,i skimmed through your proposal
83,9,1,2,25,the protesters blocked all traffic
84,9,1,2,25,dashing through the snow
85,9,1,2,25,medieval times were very hard
86,9,1,2,25,an airport is a very busy place
87,9,1,2,25,insurance is important for bad drivers
88,9,1,2,25,fall is my favorite season
89,9,1,2,25,knee bone is connected to the thigh bone
90,9,1,2,25,microscopes make small things look big
91,10,0,2,100,the ventilation system is broken
92,10,0,2,100,one heck of a question
93,10,0,2,100,her majesty visited our country
94,10,0,2,100,the capitol of our nation
95,10,0,2,100,where did you get that tie
96,10,0,2,100,pumping brakes when roads are slippery
97,10,0,2,100,the four seasons will come
98,10,0,2,100,the early bird gets the worm
99,10,0,2,100,the ropes of a new organization
100,10,0,2,100,the algorithm is too complicated
101,11,1,2,100,canada has ten provinces
102,11,1,2,100,a yard is almost as long as a meter
103,11,1,2,100,it is very windy today
104,11,1,2,100,do not say anything
105,11,1,2,100,my watch fell in the water
106,11,1,2,100,the punishment should fit the crime
107,11,1,2,100,parking lot is full of trucks
108,11,1,2,100,do not lie in court or else
109,11,1,2,100,the fire raged for an entire month
110,11,1,2,100,all work and no play
111,12,1,2,100,all good boys deserve fudge
112,12,1,2,100,i cannot believe i ate the whole thing
113,12,1,2,100,can i skate with my sister today
114,12,1,2,100,do you prefer a window seat
115,12,1,2,100,interesting observation was made
116,12,1,2,100,a correction had to be published
117,12,1,2,100,just what the doctor ordered
118,12,1,2,100,vanilla flavored ice cream
119,12,1,2,100,accompanied by an adult
120,12,1,2,100,zero in on the facts
121,13,0,2,50,go out for some pizza and beer
122,13,0,2,50,very reluctant to enter
123,13,0,2,50,with each step forward
124,13,0,2,50,life is but a dream
125,13,0,2,50,suburbs are sprawling everywhere
126,13,0,2,50,sad to hear that news
127,13,0,2,50,thank you for your help
128,13,0,2,50,earthquakes are predictable
129,13,0,2,50,this mission statement is baloney
130,13,0,2,50,he is just like everyone else
131,14,1,2,50,stability of the nation
132,14,1,2,50,elections bring out the best
133,14,1,2,50,the imagination of the nation
134,14,1,2,50,the bus was very crowded
135,14,1,2,50,all together in one big pile
136,14,1,2,50,soon we will return from the city
137,14,1,2,50,i hate baking pies
138,14,1,2,50,win first prize in the contest
139,14,1,2,50,rectangular objects have four sides
140,14,1,2,50,on the way to the cottage
141,15,1,2,50,you want to eat your cake
142,15,1,2,50,prevailing wind from the east
143,15,1,2,50,the aspirations of a nation
144,15,1,2,50,spill coffee on the carpet
145,15,1,2,50,sharp cheese keeps the mind sharp
146,15,1,2,50,your etiquette needs some work
147,15,1,2,50,correct your diction immediately
148,15,1,2,50,goldilocks and the three bears
149,15,1,2,50,the back yard of our house
150,15,1,2,50,six daughters and seven sons
