1,1,0,1,50,this is a very good idea
2,1,0,1,50,they love to yap about nothing
3,1,0,1,50,win first prize in the contest
4,1,0,1,50,in sharp contrast to your words
5,1,0,1,50,dashing through the snow
6,1,0,1,50,no kissing in the library
7,1,0,1,50,dinosaurs have been extinct for ages
8,1,0,1,50,peek out the window
9,1,0,1,50,the fax machine is broken
10,1,0,1,50,most judges are very honest
11,2,1,1,50,companies announce a merger
12,2,1,1,50,good at addition and subtraction
13,2,1,1,50,head shoulders knees and toes
14,2,1,1,50,communicate through email
15,2,1,1,50,take it to the recycling depot
16,2,1,1,50,go out for some pizza and beer
17,2,1,1,50,make my day you sucker
18,2,1,1,50,the first time he tried to swim
19,2,1,1,50,the registration period is over
20,2,1,1,50,players must know all the rules
21,3,1,1,50,question that must be answered
22,3,1,1,50,traveling requires a lot of fuel
23,3,1,1,50,for murder you get a long prison sentence
24,3,1,1,50,my bare face in the wind
25,3,1,1,50,the algorithm is too complicated
26,3,1,1,50,a problem with the engine
27,3,1,1,50,dolphins leap high out of the water
28,3,1,1,50,my favorite subject is psychology
29,3,1,1,50,the coronation was very exciting
30,3,1,1,50,the acceptance speech was boring
31,4,0,1,75,sign the withdrawal slip
32,4,0,1,75,all good boys deserve fudge
33,4,0,1,75,very reluctant to enter
34,4,0,1,75,the bathroom is good for reading
35,4,0,1,75,sharp cheese keeps the mind sharp
36,4,0,1,75,quit while you are ahead
37,4,0,1,75,one of the poorest nations
38,4,0,1,75,the chamber makes important decisions
39,4,0,1,75,put garbage in an abandoned mine
40,4,0,1,75,we accept personal checks
41,5,1,1,75,jumping right out of the water
42,5,1,1,75,knee bone is connected to the thigh bone
43,5,1,1,75,completely sold out of that
44,5,1,1,75,we park in driveways
45,5,1,1,75,burglars never leave their business card
46,5,1,1,75,a lot of chlorine in the water
47,5,1,1,75,my preferred treat is chocolate
48,5,1,1,75,every saturday he folds the laundry
49,5,1,1,75,granite is the hardest of all rocks
50,5,1,1,75,an inefficient way to heat a house
51,6,1,1,75,what you see is what you get
52,6,1,1,75,the assault took six months
53,6,1,1,75,the presidential suite is very busy
54,6,1,1,75,nobody cares anymore
55,6,1,1,75,a good joke deserves a good laugh
56,6,1,1,75,our fax number has changed
57,6,1,1,75,the second largest country
58,6,1,1,75,if at first you do not succeed
59,6,1,1,75,have a good weekend
60,6,1,1,75,buckle up for safety
61,7,0,1,25,this equation is too complicated
62,7,0,1,25,superman never wore a mask
63,7,0,1,25,the treasury department is broke
64,7,0,1,25,three two one zero blast off
65,7,0,1,25,see you later alligator
66,7,0,1,25,can i skate with my sister today
67,7,0,1,25,i watched blazing saddles
68,7,0,1,25,stiff penalty for staying out late
69,7,0,1,25,a subject one can really enjoy
70,7,0,1,25,canada has three territories
71,8,1,1,25,the high waves will swamp us
72,8,1,1,25,rejection letters are discouraging
73,8,1,1,25,that agreement is rife with problems
74,8,1,1,25,sit at the front of the bus
75,8,1,1,25,the opposing team is over there
76,8,1,1,25,a tumor is okay provided it is benign
77,8,1,1,25,every apple from every tree
78,8,1,1,25,he called seven times
79,8,1,1,25,bank transaction was not registered
80,8,1,1,25,bad for the environment
81,9,1,1,25,a thoroughly disgusting thing to say
82,9,1,1,25,he was wearing a sweatshirt
83,9,1,1,25,this mission statement is baloney
84,9,1,1,25,everyone wants to win the lottery
85,9,1,1,25,a good response to the question
86,9,1,1,25,for your information only
87,9,1,1,25,i hate baking pies
88,9,1,1,25,nothing finer than discovering a treasure
89,9,1,1,25,construction makes traveling difficult
90,9,1,1,25,the biggest hamburger i have ever seen
91,10,0,1,100,a correction had to be published
92,10,0,1,100,motivational seminars make me sick
93,10,0,1,100,your etiquette needs some work
94,10,0,1,100,prepare for the exam in advance
95,10,0,1,100,make up a few more phrases
96,10,0,1,100,the largest of the five oceans
97,10,0,1,100,the library is closed today
98,10,0,1,100,drugs should be avoided
99,10,0,1,100,the insulation is not working
100,10,0,1,100,microscopes make small things look big
101,11,1,1,100,work hard to reach the summit
102,11,1,1,100,labor unions know how to organize
103,11,1,1,100,yes you are very smart
104,11,1,1,100,the kids are very excited
105,11,1,1,100,electric cars need big fuel cells
106,11,1,1,100,dormitory doors are locked at midnight
107,11,1,1,100,user friendly interface
108,11,1,1,100,my mother makes good cookies
109,11,1,1,100,get your priorities in order
110,11,1,1,100,i listen to the tape every day
111,12,1,1,100,one heck of a question
112,12,1,1,100,where did you get such a silly idea
113,12,1,1,100,i am allergic to bees and peanuts
114,12,1,1,100,my bank account is overdrawn
115,12,1,1,100,my favorite web browser
116,12,1,1,100,gas bills are sent monthly
117,12,1,1,100,i am going to a music lesson
118,12,1,1,100,if diplomacy does not work
119,12,1,1,100,do not drink the water
120,12,1,1,100,try to enjoy your maternity leave
121,13,0,1,0,the ropes of a new organization
122,13,0,1,0,all together in one big pile
123,13,0,1,0,are you talking to me
124,13,0,1,0,parking tickets can be challenged
125,13,0,1,0,an airport is a very busy place
126,13,0,1,0,valid until the end of the year
127,13,0,1,0,breathing is difficult
128,13,0,1,0,a rattle snake is very poisonous
129,13,0,1,0,your presentation was inspiring
130,13,0,1,0,this is too much to handle
131,14,1,1,0,fall is my favorite season
132,14,1,1,0,the dog will bite you
133,14,1,1,0,if you come home late the doors are locked
134,14,1,1,0,the assignment is due today
135,14,1,1,0,exceed the maximum speed limit
136,14,1,1,0,i cannot believe i ate the whole thing
137,14,1,1,0,meet tomorrow in the lavatory
138,14,1,1,0,well connected with people
139,14,1,1,0,toss the ball around
140,14,1,1,0,what a monkey sees a monkey will do
141,15,1,1,0,a psychiatrist will help you
142,15,1,1,0,the most beautiful sunset
143,15,1,1,0,freud wrote of the ego
144,15,1,1,0,i will meet you at noon
145,15,1,1,0,this system of taxation
146,15,1,1,0,wishful thinking is fine
147,15,1,1,0,beautiful paintings in the gallery
148,15,1,1,0,prescription drugs require a note
149,15,1,1,0,where did i leave my glasses
150,15,1,1,0,sprawling subdivisions are bad
